
		[
			{
				"title" : 'Brown rice',
				"img" : 'assets/simages/cake1.png',
		        "name" : 'Chocolate Cake',
		        "price" : '400',
		        "weight" : '1 kg'
			},
			{
				"title": 'Crispy chicken',
				"img" : 'assets/simages/cake2.png',
         "name" : 'Chocolate Cake',
        "price" : '400',
        "weight" : '1 kg'
			},
			{
				"title" : 'Sweet corn',
				"img" : 'assets/simages/cake3.png',
        "name" : 'Black Forest',
        "price" : '500',
        "weight" : '2 kg'
			},
			{
				"title" : 'Fish fry',
				"img" : 'assets/simages/cake4.png',
        "name" : 'Vanilla Cake',
        "price" : '600',
        "weight" : '3 kg'
			},
			{
				"title" : 'Lemon juice',
				"img" : 'assets/simages/cake5.png',
        "name" : 'Chocolate Cake',
        "price" : '400',
        "weight" : '500 gms'
			},
			{
				"title" : 'Chicken',
				"img" : 'assets/simages/cake8.png',
         "name" : 'Chocolate Cake',
        "price" : '400',
        "weight" : '500 gms'
			},
			{
				"title" : 'Valentine Cakes',
				"img" : 'assets/simages/cake7.png',
         "name" : 'Vanilla Cake',
        "price" : '600',
        "weight" : '3 kg'
			},
			{
				"title" : 'Trendy Cakes',
				"img" : 'assets/simages/cake8.png',
        "name" : 'Vanilla Cake',
        "price" : '600',
        "weight" : '3 kg'
			}
			
		]
